lab3/simulation/qsim/lab.msim.vcd
$comment
	File created using the following command:
		vcd file lab.msim.vcd -direction
$end
$date
	Thu Feb  8 10:43:57 2018
$end
$version
	ModelSim Version 10.4d
$end
$timescale
	1ps
$end

$scope module ALU_vlg_vec_tst $end
$var reg 32 ! a [31:0] $end
$var reg 32 " b [31:0] $end
$var reg 3 # operation [2:0] $end
$var reg 32 $ treg_result [31:0] $end
$var wire 1 % carry_out $end
$var wire 1 & result [31] $end
$var wire 1 ' result [30] $end
$var wire 1 ( result [29] $end
$var wire 1 ) result [28] $end
$var wire 1 * result [27] $end
$var wire 1 + result [26] $end
$var wire 1 , result [25] $end
$var wire 1 - result [24] $end
$var wire 1 . result [23] $end
$var wire 1 / result [22] $end
$var wire 1 0 result [21] $end
$var wire 1 1 result [20] $end
$var wire 1 2 result [19] $end
$var wire 1 3 result [18] $end
$var wire 1 4 result [17] $end
$var wire 1 5 result [16] $end
$var wire 1 6 result [15] $end
$var wire 1 7 result [14] $end
$var wire 1 8 result [13] $end
$var wire 1 9 result [12] $end
$var wire 1 : result [11] $end
$var wire 1 ; result [10] $end
$var wire 1 < result [9] $end
$var wire 1 = result [8] $end
$var wire 1 > result [7] $end
$var wire 1 ? result [6] $end
$var wire 1 @ result [5] $end
$var wire 1 A result [4] $end
$var wire 1 B result [3] $end
$var wire 1 C result [2] $end
$var wire 1 D result [1] $end
$var wire 1 E result [0] $end
$var wire 1 F zero $end

$scope module i1 $end
$var wire 1 G gnd $end
$var wire 1 H vcc $end
$var wire 1 I unknown $end
$var tri1 1 J devclrn $end
$var tri1 1 K devpor $end
$var tri1 1 L devoe $end
$var wire 1 M result[0]~input_o $end
$var wire 1 N result[1]~input_o $end
$var wire 1 O result[2]~input_o $end
$var wire 1 P result[3]~input_o $end
$var wire 1 Q result[4]~input_o $end
$var wire 1 R result[5]~input_o $end
$var wire 1 S result[6]~input_o $end
$var wire 1 T result[7]~input_o $end
$var wire 1 U result[8]~input_o $end
$var wire 1 V result[9]~input_o $end
$var wire 1 W result[10]~input_o $end
$var wire 1 X result[11]~input_o $end
$var wire 1 Y result[12]~input_o $end
$var wire 1 Z result[13]~input_o $end
$var wire 1 [ result[14]~input_o $end
$var wire 1 \ result[15]~input_o $end
$var wire 1 ] result[16]~input_o $end
$var wire 1 ^ result[17]~input_o $end
$var wire 1 _ result[18]~input_o $end
$var wire 1 ` result[19]~input_o $end
$var wire 1 a result[20]~input_o $end
$var wire 1 b result[21]~input_o $end
$var wire 1 c result[22]~input_o $end
$var wire 1 d result[23]~input_o $end
$var wire 1 e result[24]~input_o $end
$var wire 1 f result[25]~input_o $end
$var wire 1 g result[26]~input_o $end
$var wire 1 h result[27]~input_o $end
$var wire 1 i result[28]~input_o $end
$var wire 1 j result[29]~input_o $end
$var wire 1 k result[30]~input_o $end
$var wire 1 l result[31]~input_o $end
$var wire 1 m result[0]~output_o $end
$var wire 1 n result[1]~output_o $end
$var wire 1 o result[2]~output_o $end
$var wire 1 p result[3]~output_o $end
$var wire 1 q result[4]~output_o $end
$var wire 1 r result[5]~output_o $end
$var wire 1 s result[6]~output_o $end
$var wire 1 t result[7]~output_o $end
$var wire 1 u result[8]~output_o $end
$var wire 1 v result[9]~output_o $end
$var wire 1 w result[10]~output_o $end
$var wire 1 x result[11]~output_o $end
$var wire 1 y result[12]~output_o $end
$var wire 1 z result[13]~output_o $end
$var wire 1 { result[14]~output_o $end
$var wire 1 | result[15]~output_o $end
$var wire 1 } result[16]~output_o $end
$var wire 1 ~ result[17]~output_o $end
$var wire 1 !! result[18]~output_o $end
$var wire 1 "! result[19]~output_o $end
$var wire 1 #! result[20]~output_o $end
$var wire 1 $! result[21]~output_o $end
$var wire 1 %! result[22]~output_o $end
$var wire 1 &! result[23]~output_o $end
$var wire 1 '! result[24]~output_o $end
$var wire 1 (! result[25]~output_o $end
$var wire 1 )! result[26]~output_o $end
$var wire 1 *! result[27]~output_o $end
$var wire 1 +! result[28]~output_o $end
$var wire 1 ,! result[29]~output_o $end
$var wire 1 -! result[30]~output_o $end
$var wire 1 .! result[31]~output_o $end
$var wire 1 /! carry_out~output_o $end
$var wire 1 0! zero~output_o $end
$var wire 1 1! operation[2]~input_o $end
$var wire 1 2! b[0]~input_o $end
$var wire 1 3! operation[0]~input_o $end
$var wire 1 4! a[0]~input_o $end
$var wire 1 5! mux1|Mux31~0_combout $end
$var wire 1 6! mux1|Mux31~1_combout $end
$var wire 1 7! a[1]~input_o $end
$var wire 1 8! operation[1]~input_o $end
$var wire 1 9! mux1|Mux31~2_combout $end
$var wire 1 :! a[2]~input_o $end
$var wire 1 ;! mux1|Mux30~0_combout $end
$var wire 1 <! b[1]~input_o $end
$var wire 1 =! adder1|p1|cout~0_combout $end
$var wire 1 >! mux1|Mux30~1_combout $end
$var wire 1 ?! mux1|Mux30~2_combout $end
$var wire 1 @! mux1|Mux30~3_combout $end
$var wire 1 A! a[3]~input_o $end
$var wire 1 B! mux1|Mux29~0_combout $end
$var wire 1 C! adder1|p2|cout~0_combout $end
$var wire 1 D! mux1|Mux29~1_combout $end
$var wire 1 E! b[2]~input_o $end
$var wire 1 F! mux1|Mux29~2_combout $end
$var wire 1 G! mux1|Mux29~3_combout $end
$var wire 1 H! b[3]~input_o $end
$var wire 1 I! adder1|p3|cout~0_combout $end
$var wire 1 J! mux1|Mux28~1_combout $end
$var wire 1 K! mux1|Mux28~2_combout $end
$var wire 1 L! a[4]~input_o $end
$var wire 1 M! mux1|Mux28~0_combout $end
$var wire 1 N! mux1|Mux28~3_combout $end
$var wire 1 O! a[5]~input_o $end
$var wire 1 P! mux1|Mux27~0_combout $end
$var wire 1 Q! adder1|p4|cout~0_combout $end
$var wire 1 R! mux1|Mux27~1_combout $end
$var wire 1 S! b[4]~input_o $end
$var wire 1 T! mux1|Mux27~2_combout $end
$var wire 1 U! mux1|Mux27~3_combout $end
$var wire 1 V! a[6]~input_o $end
$var wire 1 W! mux1|Mux26~0_combout $end
$var wire 1 X! b[5]~input_o $end
$var wire 1 Y! adder1|p5|cout~0_combout $end
$var wire 1 Z! mux1|Mux26~1_combout $end
$var wire 1 [! mux1|Mux26~2_combout $end
$var wire 1 \! mux1|Mux26~3_combout $end
$var wire 1 ]! a[7]~input_o $end
$var wire 1 ^! mux1|Mux25~0_combout $end
$var wire 1 _! adder1|p6|cout~0_combout $end
$var wire 1 `! mux1|Mux25~1_combout $end
$var wire 1 a! b[6]~input_o $end
$var wire 1 b! mux1|Mux25~2_combout $end
$var wire 1 c! mux1|Mux25~3_combout $end
$var wire 1 d! a[8]~input_o $end
$var wire 1 e! mux1|Mux24~0_combout $end
$var wire 1 f! adder1|p7|cout~0_combout $end
$var wire 1 g! mux1|Mux24~1_combout $end
$var wire 1 h! b[7]~input_o $end
$var wire 1 i! mux1|Mux24~2_combout $end
$var wire 1 j! mux1|Mux24~3_combout $end
$var wire 1 k! b[8]~input_o $end
$var wire 1 l! adder1|p8|cout~0_combout $end
$var wire 1 m! mux1|Mux23~1_combout $end
$var wire 1 n! mux1|Mux23~2_combout $end
$var wire 1 o! a[9]~input_o $end
$var wire 1 p! mux1|Mux23~0_combout $end
$var wire 1 q! mux1|Mux23~3_combout $end
$var wire 1 r! adder1|p9|cout~0_combout $end
$var wire 1 s! mux1|Mux22~1_combout $end
$var wire 1 t! b[9]~input_o $end
$var wire 1 u! mux1|Mux22~2_combout $end
$var wire 1 v! a[10]~input_o $end
$var wire 1 w! mux1|Mux22~0_combout $end
$var wire 1 x! mux1|Mux22~3_combout $end
$var wire 1 y! a[11]~input_o $end
$var wire 1 z! mux1|Mux21~0_combout $end
$var wire 1 {! adder1|p10|cout~0_combout $end
$var wire 1 |! mux1|Mux21~1_combout $end
$var wire 1 }! b[10]~input_o $end
$var wire 1 ~! mux1|Mux21~2_combout $end
$var wire 1 !" mux1|Mux21~3_combout $end
$var wire 1 "" a[12]~input_o $end
$var wire 1 #" mux1|Mux20~0_combout $end
$var wire 1 $" adder1|p11|cout~0_combout $end
$var wire 1 %" mux1|Mux20~1_combout $end
$var wire 1 &" b[11]~input_o $end
$var wire 1 '" mux1|Mux20~2_combout $end
$var wire 1 (" mux1|Mux20~3_combout $end
$var wire 1 )" adder1|p12|cout~0_combout $end
$var wire 1 *" mux1|Mux19~1_combout $end
$var wire 1 +" b[12]~input_o $end
$var wire 1 ," mux1|Mux19~2_combout $end
$var wire 1 -" a[13]~input_o $end
$var wire 1 ." mux1|Mux19~0_combout $end
$var wire 1 /" mux1|Mux19~3_combout $end
$var wire 1 0" adder1|p13|cout~0_combout $end
$var wire 1 1" mux1|Mux18~1_combout $end
$var wire 1 2" b[13]~input_o $end
$var wire 1 3" mux1|Mux18~2_combout $end
$var wire 1 4" a[14]~input_o $end
$var wire 1 5" mux1|Mux18~0_combout $end
$var wire 1 6" mux1|Mux18~3_combout $end
$var wire 1 7" b[14]~input_o $end
$var wire 1 8" adder1|p14|cout~0_combout $end
$var wire 1 9" mux1|Mux17~1_combout $end
$var wire 1 :" mux1|Mux17~2_combout $end
$var wire 1 ;" a[15]~input_o $end
$var wire 1 <" mux1|Mux17~0_combout $end
$var wire 1 =" mux1|Mux17~3_combout $end
$var wire 1 >" a[16]~input_o $end
$var wire 1 ?" mux1|Mux16~0_combout $end
$var wire 1 @" adder1|p15|cout~0_combout $end
$var wire 1 A" mux1|Mux16~1_combout $end
$var wire 1 B" b[15]~input_o $end
$var wire 1 C" mux1|Mux16~2_combout $end
$var wire 1 D" mux1|Mux16~3_combout $end
$var wire 1 E" b[16]~input_o $end
$var wire 1 F" adder1|p16|cout~0_combout $end
$var wire 1 G" mux1|Mux15~1_combout $end
$var wire 1 H" mux1|Mux15~2_combout $end
$var wire 1 I" a[17]~input_o $end
$var wire 1 J" mux1|Mux15~0_combout $end
$var wire 1 K" mux1|Mux15~3_combout $end
$var wire 1 L" adder1|p17|cout~0_combout $end
$var wire 1 M" mux1|Mux14~1_combout $end
$var wire 1 N" b[17]~input_o $end
$var wire 1 O" mux1|Mux14~2_combout $end
$var wire 1 P" a[18]~input_o $end
$var wire 1 Q" mux1|Mux14~0_combout $end
$var wire 1 R" mux1|Mux14~3_combout $end
$var wire 1 S" a[19]~input_o $end
$var wire 1 T" mux1|Mux13~0_combout $end
$var wire 1 U" b[18]~input_o $end
$var wire 1 V" adder1|p18|cout~0_combout $end
$var wire 1 W" mux1|Mux13~1_combout $end
$var wire 1 X" mux1|Mux13~2_combout $end
$var wire 1 Y" mux1|Mux13~3_combout $end
$var wire 1 Z" a[20]~input_o $end
$var wire 1 [" mux1|Mux12~0_combout $end
$var wire 1 \" b[19]~input_o $end
$var wire 1 ]" adder1|p19|cout~0_combout $end
$var wire 1 ^" mux1|Mux12~1_combout $end
$var wire 1 _" mux1|Mux12~2_combout $end
$var wire 1 `" mux1|Mux12~3_combout $end
$var wire 1 a" b[20]~input_o $end
$var wire 1 b" adder1|p20|cout~0_combout $end
$var wire 1 c" mux1|Mux11~1_combout $end
$var wire 1 d" mux1|Mux11~2_combout $end
$var wire 1 e" a[21]~input_o $end
$var wire 1 f" mux1|Mux11~0_combout $end
$var wire 1 g" mux1|Mux11~3_combout $end
$var wire 1 h" adder1|p21|cout~0_combout $end
$var wire 1 i" mux1|Mux10~1_combout $end
$var wire 1 j" b[21]~input_o $end
$var wire 1 k" mux1|Mux10~2_combout $end
$var wire 1 l" a[22]~input_o $end
$var wire 1 m" mux1|Mux10~0_combout $end
$var wire 1 n" mux1|Mux10~3_combout $end
$var wire 1 o" a[23]~input_o $end
$var wire 1 p" mux1|Mux9~0_combout $end
$var wire 1 q" b[22]~input_o $end
$var wire 1 r" mux1|Mux9~1_combout $end
$var wire 1 s" adder1|p22|cout~0_combout $end
$var wire 1 t" adder1|p23|sum~0_combout $end
$var wire 1 u" mux1|Mux9~2_combout $end
$var wire 1 v" a[24]~input_o $end
$var wire 1 w" mux1|Mux8~0_combout $end
$var wire 1 x" adder1|p23|cout~0_combout $end
$var wire 1 y" mux1|Mux8~1_combout $end
$var wire 1 z" b[23]~input_o $end
$var wire 1 {" mux1|Mux8~2_combout $end
$var wire 1 |" mux1|Mux8~3_combout $end
$var wire 1 }" adder1|p24|cout~0_combout $end
$var wire 1 ~" mux1|Mux7~1_combout $end
$var wire 1 !# b[24]~input_o $end
$var wire 1 "# mux1|Mux7~2_combout $end
$var wire 1 ## a[25]~input_o $end
$var wire 1 $# mux1|Mux7~0_combout $end
$var wire 1 %# mux1|Mux7~3_combout $end
$var wire 1 &# b[25]~input_o $end
$var wire 1 '# adder1|p25|cout~0_combout $end
$var wire 1 (# mux1|Mux6~1_combout $end
$var wire 1 )# mux1|Mux6~2_combout $end
$var wire 1 *# a[26]~input_o $end
$var wire 1 +# mux1|Mux6~0_combout $end
$var wire 1 ,# mux1|Mux6~3_combout $end
$var wire 1 -# adder1|p26|cout~0_combout $end
$var wire 1 .# mux1|Mux5~1_combout $end
$var wire 1 /# b[26]~input_o $end
$var wire 1 0# mux1|Mux5~2_combout $end
$var wire 1 1# a[27]~input_o $end
$var wire 1 2# mux1|Mux5~0_combout $end
$var wire 1 3# mux1|Mux5~3_combout $end
$var wire 1 4# b[27]~input_o $end
$var wire 1 5# adder1|p27|cout~0_combout $end
$var wire 1 6# mux1|Mux4~1_combout $end
$var wire 1 7# mux1|Mux4~2_combout $end
$var wire 1 8# a[28]~input_o $end
$var wire 1 9# mux1|Mux4~0_combout $end
$var wire 1 :# mux1|Mux4~3_combout $end
$var wire 1 ;# a[29]~input_o $end
$var wire 1 <# mux1|Mux3~0_combout $end
$var wire 1 =# b[28]~input_o $end
$var wire 1 ># adder1|p28|cout~0_combout $end
$var wire 1 ?# mux1|Mux3~1_combout $end
$var wire 1 @# mux1|Mux3~2_combout $end
$var wire 1 A# mux1|Mux3~3_combout $end
$var wire 1 B# a[30]~input_o $end
$var wire 1 C# mux1|Mux2~0_combout $end
$var wire 1 D# adder1|p29|cout~0_combout $end
$var wire 1 E# mux1|Mux2~1_combout $end
$var wire 1 F# b[29]~input_o $end
$var wire 1 G# mux1|Mux2~2_combout $end
$var wire 1 H# mux1|Mux2~3_combout $end
$var wire 1 I# adder1|p30|cout~0_combout $end
$var wire 1 J# mux1|Mux1~1_combout $end
$var wire 1 K# b[30]~input_o $end
$var wire 1 L# mux1|Mux1~2_combout $end
$var wire 1 M# a[31]~input_o $end
$var wire 1 N# mux1|Mux1~0_combout $end
$var wire 1 O# mux1|Mux1~3_combout $end
$var wire 1 P# mux1|Mux0~1_combout $end
$var wire 1 Q# b[31]~input_o $end
$var wire 1 R# adder1|p31|cout~0_combout $end
$var wire 1 S# adder1|p32|sum~0_combout $end
$var wire 1 T# mux1|Mux0~0_combout $end
$var wire 1 U# mux1|Mux0~2_combout $end
$var wire 1 V# adder1|p32|cout~0_combout $end
$var wire 1 W# zero~6_combout $end
$var wire 1 X# zero~5_combout $end
$var wire 1 Y# zero~7_combout $end
$var wire 1 Z# zero~9_combout $end
$var wire 1 [# zero~1_combout $end
$var wire 1 \# zero~2_combout $end
$var wire 1 ]# zero~3_combout $end
$var wire 1 ^# zero~0_combout $end
$var wire 1 _# zero~4_combout $end
$var wire 1 `# zero~8_combout $end
$var wire 1 a# zero~10_combout $end
$upscope $end
$upscope $end
$enddefinitions $end
#0
$dumpvars
b1010 !
b0 "
b0 #
bz $
0%
0E
0D
0C
0B
0A
0@
0?
0>
0=
0<
0;
0:
09
08
07
06
05
04
03
02
01
00
0/
0.
0-
0,
0+
0*
0)
0(
0'
0&
1F
0G
1H
xI
1J
1K
1L
0M
0N
0O
0P
0Q
0R
0S
0T
0U
0V
0W
0X
0Y
0Z
0[
0\
0]
0^
0_
0`
0a
0b
0c
0d
0e
0f
0g
0h
0i
0j
0k
0l
0m
0n
0o
0p
0q
0r
0s
0t
0u
0v
0w
0x
0y
0z
0{
0|
0}
0~
0!!
0"!
0#!
0$!
0%!
0&!
0'!
0(!
0)!
0*!
0+!
0,!
0-!
0.!
0/!
10!
01!
02!
03!
04!
05!
06!
17!
08!
09!
0:!
0;!
0<!
0=!
1>!
0?!
0@!
1A!
1B!
0C!
0D!
0E!
0F!
0G!
0H!
0I!
1J!
0K!
0L!
0M!
0N!
0O!
1P!
0Q!
0R!
0S!
0T!
0U!
0V!
0W!
0X!
0Y!
0Z!
0[!
0\!
0]!
0^!
0_!
0`!
0a!
0b!
0c!
0d!
0e!
0f!
0g!
0h!
0i!
0j!
0k!
0l!
0m!
0n!
0o!
0p!
0q!
0r!
0s!
0t!
0u!
0v!
0w!
0x!
0y!
0z!
0{!
0|!
0}!
0~!
0!"
0""
0#"
0$"
0%"
0&"
0'"
0("
0)"
0*"
0+"
0,"
0-"
0."
0/"
00"
01"
02"
03"
04"
05"
06"
07"
08"
09"
0:"
0;"
0<"
0="
0>"
0?"
0@"
0A"
0B"
0C"
0D"
0E"
0F"
0G"
0H"
0I"
0J"
0K"
0L"
0M"
0N"
0O"
0P"
0Q"
0R"
0S"
0T"
0U"
0V"
0W"
0X"
0Y"
0Z"
0["
0\"
0]"
0^"
0_"
0`"
0a"
0b"
0c"
0d"
0e"
0f"
0g"
0h"
0i"
0j"
0k"
0l"
0m"
0n"
0o"
0p"
0q"
0r"
0s"
0t"
0u"
0v"
0w"
0x"
0y"
0z"
0{"
0|"
0}"
0~"
0!#
0"#
0##
0$#
0%#
0&#
0'#
0(#
0)#
0*#
0+#
0,#
0-#
0.#
0/#
00#
01#
02#
03#
04#
05#
06#
07#
08#
09#
0:#
0;#
0<#
0=#
0>#
0?#
0@#
0A#
0B#
0C#
0D#
0E#
0F#
0G#
0H#
0I#
0J#
0K#
0L#
0M#
0N#
0O#
0P#
0Q#
0R#
0S#
0T#
0U#
0V#
0W#
0X#
0Y#
0Z#
0[#
0\#
0]#
0^#
0_#
0`#
0a#
$end
#10000
b1011 !
b1 "
b1 #
13!
12!
14!
1p"
0P!
1K!
1?!
16!
1=!
1C!
1N!
1@!
19!
1m
1n
1p
1[#
1^#
1E
1D
1B
1M
1N
1P
1_#
1a#
00!
0F
#20000
b1111 !
b1101 !
b11 "
b11 #
b1100 !
b10 "
b10 #
03!
18!
02!
1<!
04!
07!
1:!
0p"
1P!
1M!
0B!
0?!
06!
0=!
1I!
09!
0m
0C!
0>!
1Q!
0J!
0E
0@!
0n
0M
0I!
1D!
1?!
1R!
0K!
0^#
0D
0N
0Q!
1J!
1F!
1T!
1@!
0N!
0p
1n
0R!
1K!
1^#
0[#
0B
1D
1G!
1U!
1q
1o
0P
1N
0T!
1[#
1A
1C
1N!
1p
1Q
1O
1B
0U!
0q
1P
0A
0Q
#30000
b110 #
b1101 !
b11 "
12!
14!
11!
1=!
1;!
1S#
1t"
1Q!
1I!
1O#
1H#
1A#
1:#
13#
1,#
1%#
1|"
1n"
1g"
1`"
1Y"
1R"
1K"
1D"
1="
16"
1/"
1("
1!"
1x!
1q!
1j!
1c!
1\!
1U!
0N!
0G!
0@!
0n
0o
0p
1q
1r
1s
1t
1u
1v
1w
1x
1y
1z
1{
1|
1}
1~
1!!
1"!
1#!
1$!
1&!
1'!
1(!
1)!
1*!
1+!
1,!
1-!
1>!
1W#
1Y!
1R!
0J!
1Z#
1`#
1Y#
1X#
1]#
1\#
0^#
0D
0C
0B
1A
1@
1?
1>
1=
1<
1;
1:
19
18
17
16
15
14
13
12
11
10
1.
1-
1,
1+
1*
1)
1(
1'
1U#
1u"
1%!
1.!
0N
0O
0P
1Q
1R
1S
1T
1U
1V
1W
1X
1Y
1Z
1[
1\
1]
1^
1_
1`
1a
1b
1d
1e
1f
1g
1h
1i
1j
1k
0?!
1_!
1Z!
1T!
0K!
1^#
1/
1&
1c
1l
1f!
1`!
1[!
1@!
0U!
1N!
1p
0q
1n
1l!
1g!
1b!
1B
0A
1D
0\!
0r
1P
0Q
1N
1r!
1m!
1i!
0@
0c!
0s
0R
1{!
1s!
1n!
0?
0j!
0t
0S
1$"
1|!
1u!
0>
0q!
0u
0T
1)"
1%"
1~!
0=
0x!
0v
0U
10"
1*"
1'"
0<
0!"
0w
0V
18"
11"
1,"
0\#
0;
0("
0x
0W
1@"
19"
13"
0:
0/"
0y
0X
1F"
1A"
1:"
09
06"
0z
0Y
1L"
1G"
1C"
08
0="
0{
0Z
1V"
1M"
1H"
0]#
07
0D"
0|
0[
1]"
1W"
1O"
06
0K"
0}
0\
1b"
1^"
1X"
05
0R"
0~
0]
1h"
1c"
1_"
04
0Y"
0!!
0^
1s"
1i"
1d"
0X#
03
0`"
0"!
0_
1x"
0t"
1k"
02
0g"
0#!
0`
1}"
1y"
01
0u"
0n"
0$!
0%!
0a
1'#
1~"
1{"
0W#
00
0/
0b
0c
1-#
1(#
1"#
0Y#
0|"
0&!
15#
1.#
1)#
0.
0%#
0'!
0d
1>#
16#
10#
0-
0,#
0(!
0e
1D#
1?#
17#
0,
03#
0)!
0f
1I#
1E#
1@#
0`#
0+
0:#
0*!
0g
1R#
1J#
1G#
0*
0A#
0+!
0h
0S#
1L#
0)
1V#
0H#
0,!
1/!
0i
1%
0(
0U#
0O#
0-!
0.!
0j
0Z#
0'
0&
0k
0l
#40000
b10000000000000000000000000000011 "
b11000000000000000000000000000011 "
b11100000000000000000000000000011 "
b11110000000000000000000000000011 "
b11111000000000000000000000000011 "
b11111100000000000000000000000011 "
b11111110000000000000000000000011 "
b11111111000000000000000000000011 "
b11111111100000000000000000000011 "
b11111111110000000000000000000011 "
b11111111111000000000000000000011 "
b11111111111100000000000000000011 "
b11111111111110000000000000000011 "
b11111111111111000000000000000011 "
b11111111111111100000000000000011 "
b11111111111111110000000000000011 "
b11111111111111111000000000000011 "
b11111111111111111100000000000011 "
b11111111111111111110000000000011 "
b11111111111111111111000000000011 "
b11111111111111111111100000000011 "
b11111111111111111111110000000011 "
b11111111111111111111111000000011 "
b11111111111111111111111100000011 "
b11111111111111111111111110000011 "
b11111111111111111111111111000011 "
b11111111111111111111111111100011 "
b11111111111111111111111111110011 "
b11111111111111111111111111111011 "
b11111111111111111111111111111111 "
b1111 !
b100 #
b1110 !
08!
04!
17!
1E!
1H!
1S!
1X!
1a!
1h!
1k!
1t!
1}!
1&"
1+"
12"
17"
1B"
1E"
1N"
1U"
1\"
1a"
1j"
1q"
1z"
1!#
1&#
1/#
14#
1=#
1F#
1K#
1Q#
0J#
0E#
0?#
06#
0.#
0(#
0~"
0y"
0i"
0c"
0^"
0W"
0M"
0G"
0A"
09"
01"
0*"
0%"
0|!
0s!
0m!
0g!
0`!
0Z!
0R!
1J!
1?!
0=!
0;!
15!
1C!
1B!
0I!
0Y!
0_!
0f!
0l!
0r!
0{!
0$"
0)"
00"
08"
0@"
0F"
0L"
0V"
0]"
0b"
0h"
0s"
0x"
1t"
0}"
0'#
0-#
05#
0>#
0D#
0I#
0R#
1S#
1U!
0V#
0/!
1q
0L#
0G#
0@#
07#
00#
0)#
0"#
0{"
0k"
0d"
0_"
0X"
0O"
0H"
0C"
0:"
03"
0,"
0'"
0~!
0u!
0n!
0i!
0b!
0[!
0T!
1K!
0C!
1I!
0Q!
0t"
0S#
0%
1A
0@!
1G!
1o
0n
1Q
0I!
1Q!
1C
0D
1O
0N
0Q!
#50000
b101 #
b1111 !
14!
13!
1=!
1;!
16!
1L#
1G#
1@#
17#
10#
1)#
1"#
1{"
1k"
1d"
1_"
1X"
1O"
1H"
1C"
1:"
13"
1,"
1'"
1~!
1u!
1n!
1i!
1b!
1[!
1T!
0P!
0M!
1C!
1@!
19!
0U!
0N!
0p
0q
1m
1n
1I!
0[#
0B
0A
1E
1D
0P
0Q
1M
1N
1Q!
#60000
b11111 !
b10111 !
b10011 !
b1 #
b11111111111111111111111111111110 "
b1111111111111111111111111111110 "
b111111111111111111111111111110 "
b11111111111111111111111111110 "
b1111111111111111111111111110 "
b111111111111111111111111110 "
b11111111111111111111111110 "
b1111111111111111111111110 "
b111111111111111111111110 "
b11111111111111111111110 "
b1111111111111111111110 "
b111111111111111111110 "
b11111111111111111110 "
b1111111111111111110 "
b111111111111111110 "
b11111111111111110 "
b1111111111111110 "
b111111111111110 "
b11111111111110 "
b1111111111110 "
b111111111110 "
b11111111110 "
b1111111110 "
b111111110 "
b11111110 "
b1111110 "
b111110 "
b11110 "
b1110 "
b110 "
b10001 !
b0 #
b10000 !
02!
0H!
0S!
0X!
0a!
0h!
0k!
0t!
0}!
0&"
0+"
02"
07"
0B"
0E"
0N"
0U"
0\"
0a"
0j"
0q"
0z"
0!#
0&#
0/#
04#
0=#
0F#
0K#
0Q#
03!
01!
04!
07!
0:!
0A!
1L!
0=!
06!
05!
0Q!
0K!
1Y!
0T!
0[!
0b!
0i!
0n!
0u!
0~!
0'"
0,"
03"
0:"
0C"
0H"
0O"
0X"
0_"
0d"
0k"
0{"
0"#
0)#
00#
07#
0@#
0G#
0L#
1W!
0B!
0;!
0>!
0D!
0J!
1R!
1O#
1H#
1A#
1:#
13#
1,#
1%#
1|"
1n"
1g"
1`"
1Y"
1R"
1K"
1D"
1="
16"
1/"
1("
1!"
1x!
1q!
1j!
1c!
1\!
1U!
1N!
09!
0m
1p
1q
1r
1s
1t
1u
1v
1w
1x
1y
1z
1{
1|
1}
1~
1!!
1"!
1#!
1$!
1&!
1'!
1(!
1)!
1*!
1+!
1,!
1-!
0C!
0Y!
0?!
0F!
1Z#
1`#
1W#
1Y#
1X#
1]#
1\#
1[#
0E
1B
1A
1@
1?
1>
1=
1<
1;
1:
19
18
17
16
15
14
13
12
11
10
1.
1-
1,
1+
1*
1)
1(
1'
0N!
0U!
0\!
0c!
0j!
0q!
0x!
0!"
0("
0/"
06"
0="
0D"
0K"
0R"
0Y"
0`"
0g"
0n"
0|"
0%#
0,#
03#
0:#
0A#
0H#
0O#
0-!
0,!
0+!
0*!
0)!
0(!
0'!
0&!
0$!
0#!
0"!
0!!
0~
0}
0|
0{
0z
0y
0x
0w
0v
0u
0t
0s
0r
0q
0p
0M
1P
1Q
1R
1S
1T
1U
1V
1W
1X
1Y
1Z
1[
1\
1]
1^
1_
1`
1a
1b
1d
1e
1f
1g
1h
1i
1j
1k
0I!
0[#
0\#
0]#
0X#
0W#
0`#
0Z#
0'
0(
0)
0*
0+
0,
0-
0.
00
01
02
03
04
05
06
07
08
09
0:
0;
0<
0=
0>
0?
0@
0A
0B
0@!
0G!
0o
0n
0k
0j
0i
0h
0g
0f
0e
0d
0b
0a
0`
0_
0^
0]
0\
0[
0Z
0Y
0X
0W
0V
0U
0T
0S
0R
0Q
0P
0Y#
0^#
0C
0D
0O
0N
0_#
0a#
10!
1F
#70000
b111 "
b10001 !
14!
12!
1=!
1;!
16!
1C!
19!
1m
1I!
1^#
1E
1M
1_#
1a#
00!
0F
#80000
b11 "
b10 #
b110 #
b10011 "
b10011 !
b10010 "
b10010 !
04!
17!
18!
11!
02!
0E!
1S!
0;!
06!
1B!
1J!
1D!
1?!
1S#
1t"
1Q!
09!
1O#
1H#
1A#
1:#
13#
1,#
1%#
1|"
1n"
1g"
1`"
1Y"
1R"
1K"
1D"
1="
16"
1/"
1("
1!"
1x!
1q!
1j!
1c!
1\!
1U!
1N!
1G!
1@!
1n
1o
1p
1q
1r
1s
1t
1u
1v
1w
1x
1y
1z
1{
1|
1}
1~
1!!
1"!
1#!
1$!
1&!
1'!
1(!
1)!
1*!
1+!
1,!
1-!
0m
1K!
1F!
1W#
1Y!
0R!
1Z#
1`#
1Y#
1X#
1]#
1\#
1[#
1D
1C
1B
1A
1@
1?
1>
1=
1<
1;
1:
19
18
17
16
15
14
13
12
11
10
1.
1-
1,
1+
1*
1)
1(
1'
0E
0@!
1U#
1u"
1%!
1.!
0n
1N
1O
1P
1Q
1R
1S
1T
1U
1V
1W
1X
1Y
1Z
1[
1\
1]
1^
1_
1`
1a
1b
1d
1e
1f
1g
1h
1i
1j
1k
0M
1_!
1Z!
1T!
1/
1&
0D
0N!
0G!
0o
0p
1c
1l
0N
1f!
1`!
1[!
0C
0B
0U!
0q
0O
0P
1l!
1g!
1b!
0A
0\!
0r
0Q
1r!
1m!
1i!
0@
0c!
0s
0R
1{!
1s!
1n!
0[#
0?
0j!
0t
0S
1$"
1|!
1u!
0>
0q!
0u
0T
1)"
1%"
1~!
0=
0x!
0v
0U
10"
1*"
1'"
0<
0!"
0w
0V
18"
11"
1,"
0\#
0;
0("
0x
0W
1@"
19"
13"
0:
0/"
0y
0X
1F"
1A"
1:"
09
06"
0z
0Y
1L"
1G"
1C"
08
0="
0{
0Z
1V"
1M"
1H"
0]#
07
0D"
0|
0[
1]"
1W"
1O"
06
0K"
0}
0\
1b"
1^"
1X"
05
0R"
0~
0]
1h"
1c"
1_"
04
0Y"
0!!
0^
1s"
1i"
1d"
0X#
03
0`"
0"!
0_
1x"
0t"
1k"
02
0g"
0#!
0`
1}"
1y"
01
0u"
0n"
0$!
0%!
0a
1'#
1~"
1{"
0W#
00
0/
0b
0c
1-#
1(#
1"#
0Y#
0|"
0&!
15#
1.#
1)#
0.
0%#
0'!
0d
1>#
16#
10#
0-
0,#
0(!
0e
1D#
1?#
17#
0,
03#
0)!
0f
1I#
1E#
1@#
0`#
0+
0:#
0*!
0g
1R#
1J#
1G#
0*
0A#
0+!
0h
0S#
1L#
0)
1V#
0H#
0,!
1/!
0i
1%
0(
0U#
0O#
0-!
0.!
0j
0^#
0Z#
0'
0&
0k
0l
0_#
0a#
10!
1F
